{
  "$schema": "https://github.com/fastfetch-cli/fastfetch/raw/dev/doc/json_schema.json",
  "logo": {
    "source": "~/.config/fastfetch/avatar.png"
  },
  "modules": [
    "os",
    "kernel",
    "uptime",
    "packages",
    "shell",
    "display",
    "de",
    "wm",
    "wmtheme",
    "theme",
    "icons",
    "cursor",
    "terminal",
    "terminalfont",
    "cpu",
    "gpu",
    "break",
    "colors"
  ]
}
