[
    {
        "name": "Locate Files",
        "command": "rofi_locate.sh"
    },
    {
        "name": "Web Search",
        "command": "rofi_websearch.sh"
    },
    {
        "name": "Brave Bookmark Search",
        "command": "rofi_brave_bookmarks.sh"
    },
    {
        "name": "YouTube Search",
        "command": "ytv.sh -r"
    },
    {
        "name": "YouTube Sub Search",
        "command": "rofi_ytsubs.sh"
    },
    {
        "name": "Movies",
        "command": "rofi_movies.sh"
    },
    {
        "name": "Music Videos",
        "command": "rofi_musicvideos.sh"
    },
    {
        "name": "TV Streams",
        "command": "rofi-streams.sh"
    },
    {
        "name": "Terminal - Set Color Theme",
        "command": "kitty --class fzf-wal -e fzf-wal"
    },
    {
        "name": "Wallpaper - Set Theme Folder",
        "command": "wallpaper_folder_path.sh"
    },
    {
        "name": "Wallpaper - Downloader",
        "command": "wallpaper_downloader.sh"
    },
    {
        "name": "Wallpaper - Select Animated",
        "command": "wallpaper_animated.sh"
    },
    {
        "name": "Wallpaper - Stop Animated",
        "command": "killall xwinwrap"
    },
    {
        "name": "Trash Empty",
        "command": "kitty --class trash-empty -e trash-empty"
    }
]
